{
  "classifierPath" : "meta::pure::metamodel::diagram::Diagram",
  "content" : {
    "_type" : "diagram",
    "classViews" : [ {
      "class" : "pkg::showcase3::humanResourceModel::Employee",
      "id" : "fbb97fab-aba7-429b-81e4-e454fa602097",
      "position" : {
        "x" : 736.5544554455444,
        "y" : 253.8019801980198
      },
      "rectangle" : {
        "height" : 100.28712871287127,
        "width" : 222.5224609375
      }
    }, {
      "class" : "pkg::showcase3::humanResourceModel::Firm",
      "id" : "09bc054a-7aed-47a9-9df6-f15b34edd030",
      "position" : {
        "x" : 276.98019801980206,
        "y" : 254.33663366336634
      },
      "rectangle" : {
        "height" : 98.85148514851483,
        "width" : 167.30224609375
      }
    }, {
      "class" : "pkg::showcase3::deprecatedHumanResourceModel::Organization",
      "id" : "2cea3c6b-1d7c-4776-ad1d-a44079fa4aa1",
      "position" : {
        "x" : 310.6437238627838,
        "y" : 460.1179523097004
      },
      "rectangle" : {
        "height" : 58,
        "width" : 114.74609375
      }
    }, {
      "class" : "pkg::showcase3::deprecatedHumanResourceModel::Person",
      "id" : "013ba3cc-d7ab-4ac2-be16-38ee8cec0702",
      "position" : {
        "x" : 785.6690016317183,
        "y" : 446.41921619814707
      },
      "rectangle" : {
        "height" : 86,
        "width" : 124.521484375
      }
    } ],
    "generalizationViews" : [ ],
    "name" : "HumanResourceDiagram",
    "package" : "pkg::showcase3::humanResourceModel",
    "propertyViews" : [ {
      "line" : {
        "points" : [ {
          "x" : 431.8694414304375,
          "y" : 289.7603848974589
        }, {
          "x" : 809.0191528127086,
          "y" : 289.7603848974589
        } ]
      },
      "property" : {
        "class" : "pkg::showcase3::humanResourceModel::Firm",
        "property" : "employees"
      },
      "sourceView" : "09bc054a-7aed-47a9-9df6-f15b34edd030",
      "targetView" : "fbb97fab-aba7-429b-81e4-e454fa602097"
    }, {
      "line" : {
        "points" : [ {
          "x" : 368.0167707377838,
          "y" : 489.1179523097004
        }, {
          "x" : 847.9297438192183,
          "y" : 489.41921619814707
        } ]
      },
      "property" : {
        "class" : "pkg::showcase3::deprecatedHumanResourceModel::Organization",
        "property" : "staff"
      },
      "sourceView" : "2cea3c6b-1d7c-4776-ad1d-a44079fa4aa1",
      "targetView" : "013ba3cc-d7ab-4ac2-be16-38ee8cec0702"
    } ]
  }
}